Date,City,Pending Orders,Delivered Orders,Request_Payment Orders,Cancelled by Customer,Cancelled by Shop,Order Amount
2022-05-30,hyderabad,2,4,1,2,1,3733.71
2022-05-31,hyderabad,2,7,2,0,1,2883.5
2022-06-01,hyderabad,5,5,3,2,1,3274.738
